<svg width="88" height="12" viewBox="0 0 88 12" fill="none" xmlns="http://www.w3.org/2000/svg">
<path opacity="0.5" fill-rule="evenodd" clip-rule="evenodd" d="M85 0H3.0193H3.00002C1.61931 0 0.500017 1.11929 0.500017 2.5L0.500028 2.5074L0.5 2.51929V5.3836C0.5 6.77497 1.62793 7.90289 3.0193 7.90289C4.41066 7.90289 5.53859 6.77497 5.53859 5.3836V5H82.5V5.40289C82.5 6.7836 83.6193 7.90289 85 7.90289C86.3807 7.90289 87.5 6.78361 87.5 5.40289V2.50883L87.5 2.5C87.5 1.11929 86.3807 0 85 0Z" fill="white"/>
<rect x="13.8335" y="7" width="59.6667" height="5" rx="2.5" fill="white"/>
</svg>
