<svg width="68" height="35" viewBox="0 0 68 35" fill="none" xmlns="http://www.w3.org/2000/svg">
<path d="M1.97534 33L33.9999 0.975464L66.0244 33" stroke="white" stroke-width="3"/>
<path d="M60.9753 6.98138H48.8552V17.0215L60.9753 29.4689V6.98138Z" fill="white"/>
<rect opacity="0.3" x="48.9753" y="1.27588" width="12" height="3" fill="white"/>
</svg>
