<svg width="27" height="28" viewBox="0 0 27 28" fill="none" xmlns="http://www.w3.org/2000/svg">
<path d="M13.5 0C6.04406 0 0 6.26792 0 14C0 21.7321 6.04406 28 13.5 28C20.9559 28 27 21.7321 27 14C27 6.26792 20.9559 0 13.5 0ZM14.4239 17.3177C13.5577 17.2492 13.1948 16.8044 12.517 16.3785C12.1444 18.4071 11.6887 20.3525 10.3387 21.369C9.92109 18.3006 10.9491 15.9994 11.4272 13.5538C10.613 12.1319 11.5242 9.27208 13.2427 9.975C15.3563 10.8442 11.4117 15.2615 14.0597 15.8142C16.8244 16.3888 17.9536 10.8383 16.2394 9.03583C13.7616 6.42979 9.02953 8.97604 9.61172 12.7065C9.75234 13.6179 10.6622 13.895 9.97453 15.1535C8.38969 14.789 7.91578 13.4925 7.97766 11.7644C8.07469 8.93521 10.4288 6.95333 12.7884 6.68062C15.7739 6.33646 18.5752 7.81667 18.9633 10.7304C19.3978 14.0175 17.6147 17.5744 14.4239 17.3177Z" fill="black"/>
</svg>
