<svg width="45" height="46" viewBox="0 0 45 46" fill="none" xmlns="http://www.w3.org/2000/svg">
<rect x="1.27197" y="1.63599" width="42.7279" height="42.7279" fill="white"/>
<path d="M29 22.9999L16.2721 22.9999" stroke="#242424" stroke-width="2"/>
<rect x="1.27197" y="1.63599" width="42.7279" height="42.7279" stroke="#242424" stroke-width="2"/>
</svg>
