<svg width="100%" viewBox="0 0 34 32" fill="none" xmlns="http://www.w3.org/2000/svg">
    <path d="M15.6482 2.86729C15.4293 2.77643 15.1886 2.7531 14.9566 2.80027C14.7246 2.84744 14.5116 2.96301 14.3447 3.1323L7.11375 10.4733H1.54404C1.38685 10.473 1.23115 10.504 1.08587 10.5646C0.940601 10.6251 0.808615 10.714 0.697466 10.8262C0.586317 10.9383 0.498198 11.0714 0.438165 11.218C0.378133 11.3646 0.347397 11.5217 0.347658 11.6803V20.3923C0.347397 20.5509 0.378133 20.7079 0.438165 20.8545C0.498198 21.001 0.586317 21.1342 0.697466 21.2463C0.808615 21.3585 0.940601 21.4474 1.08587 21.5079C1.23115 21.5685 1.38685 21.5995 1.54404 21.5992H7.08694L14.3477 28.9403C14.5722 29.1668 14.8767 29.2941 15.1942 29.2943C15.511 29.2938 15.8147 29.1667 16.0389 28.9409C16.2631 28.7151 16.3896 28.4088 16.3906 28.0892V3.98228C16.39 3.74319 16.3191 3.5096 16.187 3.31114C16.0548 3.11267 15.8673 2.95826 15.6482 2.86729Z" fill="white"/>
    <path d="M28.0986 16.0033C28.0994 13.7923 27.4563 11.6298 26.2494 9.78427C25.0425 7.93875 23.3249 6.49152 21.3098 5.62228C21.0181 5.49591 20.6886 5.49161 20.3938 5.61032C20.099 5.72903 19.863 5.96096 19.7378 6.25522C19.6125 6.54948 19.6082 6.88198 19.7259 7.17941C19.8436 7.47685 20.0735 7.7149 20.3652 7.84128C21.9469 8.52256 23.2958 9.65702 24.2447 11.1041C25.1937 12.5512 25.7009 14.2473 25.7038 15.9824C25.7066 17.7175 25.2049 19.4152 24.2607 20.8655C23.3165 22.3157 21.9714 23.4547 20.3919 24.1412C20.1386 24.251 19.9308 24.4459 19.8035 24.6926C19.6763 24.9394 19.6374 25.2229 19.6937 25.4952C19.7499 25.7675 19.8977 26.0118 20.112 26.1868C20.3263 26.3617 20.594 26.4567 20.8697 26.4553C21.0321 26.4551 21.1928 26.4211 21.3415 26.3553C23.3478 25.4854 25.0572 24.0411 26.2582 22.2012C27.4592 20.3612 28.0991 18.2063 28.0986 16.0033Z" fill="white"/>
    <path d="M22.8069 16.0013C22.8085 14.8343 22.4686 13.6927 21.83 12.7197C21.1913 11.7466 20.2823 10.9853 19.2167 10.5312C18.9255 10.4124 18.5997 10.4138 18.3095 10.5351C18.0193 10.6564 17.7879 10.8878 17.6653 11.1795C17.5427 11.4713 17.5386 11.7999 17.654 12.0947C17.7693 12.3894 17.9948 12.6266 18.2819 12.7552C18.9113 13.0243 19.4486 13.474 19.8272 14.0482C20.2057 14.6224 20.409 15.296 20.4118 15.9857C20.4145 16.6753 20.2167 17.3507 19.8426 17.928C19.4686 18.5052 18.9349 18.959 18.3077 19.2333C18.0552 19.3434 17.848 19.5381 17.7212 19.7844C17.5943 20.0307 17.5556 20.3135 17.6115 20.5853C17.6674 20.8571 17.8145 21.101 18.028 21.2761C18.2415 21.4512 18.5084 21.5466 18.7835 21.5463C18.9479 21.5471 19.1107 21.513 19.2612 21.4463C20.314 20.9862 21.2105 20.2257 21.8405 19.2583C22.4704 18.2909 22.8063 17.1588 22.8069 16.0013Z" fill="white"/>
    <path d="M23.3441 0.844223C23.1998 0.781648 23.0447 0.748427 22.8876 0.746322C22.7306 0.744218 22.5747 0.773329 22.4288 0.832016C22.2829 0.890702 22.1499 0.97782 22.0374 1.08836C21.9248 1.19891 21.835 1.33073 21.773 1.4763C21.711 1.62187 21.678 1.77832 21.6759 1.93675C21.6738 2.09519 21.7027 2.25246 21.7608 2.39964C21.819 2.54682 21.9054 2.68102 22.0149 2.79454C22.1245 2.90806 22.2552 2.99869 22.3995 3.06126C24.9078 4.14373 27.0463 5.94469 28.5502 8.24108C30.0541 10.5375 30.8572 13.2284 30.8603 15.9807C30.8633 18.733 30.0662 21.4258 28.5674 23.7256C27.0686 26.0254 24.9341 27.8312 22.4282 28.9193C22.284 28.982 22.1536 29.0727 22.0441 29.1863C21.9347 29.2999 21.8486 29.4341 21.7906 29.5813C21.7326 29.7285 21.7039 29.8857 21.7061 30.0441C21.7084 30.2024 21.7416 30.3588 21.8037 30.5043C21.8659 30.6497 21.9558 30.7814 22.0684 30.8917C22.181 31.0021 22.3141 31.0891 22.46 31.1476C22.6059 31.2061 22.7617 31.2349 22.9187 31.2327C23.0756 31.2304 23.2307 31.197 23.3748 31.1343C26.3105 29.8601 28.8112 27.7451 30.5672 25.0513C32.3233 22.3575 33.2575 19.2033 33.2543 15.9791C33.251 12.755 32.3103 9.60263 30.5488 6.91246C28.7873 4.2223 26.2824 2.11238 23.3441 0.844223Z" fill="white"/>
</svg>
