<svg width="49" height="48" viewBox="0 0 49 48" fill="none" xmlns="http://www.w3.org/2000/svg">
<path d="M34.625 46.125C34.625 47.1606 33.7856 48 32.75 48H9.875C5.73938 48 2.375 44.6356 2.375 40.5V19.6875C2.375 18.6519 3.21436 17.8125 4.25 17.8125C5.28564 17.8125 6.125 18.6519 6.125 19.6875V40.5C6.125 42.5676 7.80737 44.25 9.875 44.25H32.75C33.7856 44.25 34.625 45.0894 34.625 46.125ZM48.5 5.625V11.25C48.5 12.2856 47.6606 13.125 46.625 13.125V26.8125C46.625 27.8481 45.7856 28.6875 44.75 28.6875C43.7144 28.6875 42.875 27.8481 42.875 26.8125V13.125H2.375C1.33936 13.125 0.5 12.2856 0.5 11.25V5.625C0.5 2.52319 3.02319 0 6.125 0H42.875C45.9768 0 48.5 2.52319 48.5 5.625ZM4.25 9.375H44.75V5.625C44.75 4.59119 43.9088 3.75 42.875 3.75H6.125C5.09119 3.75 4.25 4.59119 4.25 5.625V9.375ZM28.625 20.625C29.6606 20.625 30.5 19.7856 30.5 18.75C30.5 17.7144 29.6606 16.875 28.625 16.875H20.1875C19.1519 16.875 18.3125 17.7144 18.3125 18.75C18.3125 19.7856 19.1519 20.625 20.1875 20.625H28.625Z" fill="#377EC7"/>
<path d="M30.3132 31.4063H40.2031C44.7782 31.4063 48.5 35.1281 48.5 39.7031C48.5 41.9187 47.6489 43.9995 46.1032 45.5625C44.549 47.1343 42.4718 48 40.2551 48C39.2195 48 38.3801 47.1607 38.3801 46.125C38.3801 45.0894 39.2195 44.25 40.2551 44.25C42.7336 44.25 44.75 42.2102 44.75 39.7031C44.75 37.1961 42.7102 35.1563 40.2031 35.1563H30.5147L32.6658 37.2957C33.4 38.0259 33.4037 39.2128 32.6735 39.947C32.3069 40.3154 31.8253 40.5 31.3438 40.5C30.8655 40.5 30.3876 40.3184 30.0214 39.9544L26.5339 36.4863C25.6437 35.6008 25.1544 34.4238 25.1563 33.1714C25.1581 31.919 25.6506 30.7431 26.5435 29.8601L30.0254 26.417C30.7615 25.6886 31.9487 25.6956 32.6768 26.4317C33.4052 27.1677 33.3986 28.355 32.6621 29.0834L30.3132 31.4063Z" fill="#377EC7"/>
</svg>
