<svg width="100%" viewBox="0 0 19 20" fill="none" xmlns="http://www.w3.org/2000/svg">
<path d="M15.2065 12.4C17.1985 12.4 18.8065 14.008 18.8065 16C18.8065 17.992 17.1985 19.6 15.2065 19.6C13.2145 19.6 11.6065 17.992 11.6065 16C11.6065 15.712 11.6425 15.448 11.7145 15.172L6.45854 12.412C5.79854 13.144 4.86254 13.6 3.80654 13.6C1.81454 13.6 0.206543 11.992 0.206543 10C0.206543 8.008 1.81454 6.4 3.80654 6.4C4.86254 6.4 5.79854 6.868 6.45854 7.588L11.7145 4.828C11.6425 4.552 11.6065 4.288 11.6065 4C11.6065 2.008 13.2145 0.400002 15.2065 0.400002C17.1985 0.400002 18.8065 2.008 18.8065 4C18.8065 5.992 17.1985 7.6 15.2065 7.6C14.1505 7.6 13.2145 7.132 12.5545 6.412L7.29854 9.172C7.44388 9.71444 7.44388 10.2856 7.29854 10.828L12.5545 13.588C13.2145 12.856 14.1505 12.4 15.2065 12.4Z" fill="#27366D"/>
</svg>
