<svg width="100%" viewBox="0 0 16 15" fill="none" xmlns="http://www.w3.org/2000/svg">
    <path d="M5.00334 8.7385C5.19548 9.66722 6.01347 10.3333 6.96186 10.3333H12.0438C12.9896 10.3333 13.8061 9.6708 14.0009 8.74531L14.7461 5.20597C14.8769 4.58442 14.4027 3.99996 13.7675 3.99996H4.02295L5.00334 8.7385Z" fill="#1263B7"/>
    <path d="M0.666626 0.666626H3.33329L4.02295 3.99996M4.02295 3.99996L5.00334 8.7385C5.19548 9.66722 6.01347 10.3333 6.96186 10.3333H12.0438C12.9896 10.3333 13.8061 9.6708 14.0009 8.74531L14.7461 5.20597C14.8769 4.58442 14.4027 3.99996 13.7675 3.99996H4.02295Z" stroke="#1263B7" stroke-linecap="round"/>
    <ellipse cx="6.33333" cy="13.3333" rx="1.33333" ry="1.33333" fill="#1263B7"/>
    <ellipse cx="13" cy="13.3333" rx="1.33333" ry="1.33333" fill="#1263B7"/>
</svg>
