<svg width="61" height="64" viewBox="0 0 61 64" fill="none" xmlns="http://www.w3.org/2000/svg">
<path d="M22.7344 38.4375H7.24219L3.72656 48H0.703125L13.6172 13.875H16.3594L29.2734 48H26.2734L22.7344 38.4375ZM8.13281 35.9766H21.8203L14.9766 17.3906L8.13281 35.9766Z" fill="white"/>
<path d="M39.8701 15.9917H44.0332V17.7861H39.8701V22.5029H37.9629V17.7861H33.7998V15.9917H37.9629V11.6338H39.8701V15.9917Z" fill="white" fill-opacity="0.3"/>
<path d="M55.8701 15.9917H60.0332V17.7861H55.8701V22.5029H53.9629V17.7861H49.7998V15.9917H53.9629V11.6338H55.8701V15.9917Z" fill="white" fill-opacity="0.3"/>
</svg>
