<svg width="38" height="41" viewBox="0 0 38 41" fill="none" xmlns="http://www.w3.org/2000/svg">
<path fill-rule="evenodd" clip-rule="evenodd" d="M1.5 20V31.5L24 39L36.5 31.5V20H1.5Z" fill="white" fill-opacity="0.3"/>
<path d="M1.5 31.5V6.5L18 1.5V6.5H36.5V31.5L24 39L1.5 31.5Z" stroke="white" stroke-width="2"/>
</svg>
